…
claudius_tc <- count_terms(claudius)
gertrude_tc <- count_terms(gertrude)
hamlet_tc <- count_terms(hamlet)
horatio_tc <- count_terms(horatio)
ophelia_tc <- count_terms(ophelia)
```

``` r
scores <- compare_vocabs(tc_dfs = list("claudius" = claudius_tc,
                                       "gertrude" = gertrude_tc,
                                       "hamlet" = hamlet_tc,
                                       "horatio" = horatio_tc,
                                       "ophelia" = ophelia_tc))
scores
#> # A tibble: 887 x 7
#>    Word     `In Docs` claudius     gertrude     hamlet     horatio    ophelia   
#>    <chr>        <dbl> <list>       <list>       <list>     <list>     <list>    
#>  1 ability          1 <tibble [1 … <tibble [1 … <tibble [… <tibble [… <tibble […
#>  2 aboard           1 <tibble [1 … <tibble [1 … <tibble [… <tibble [… <tibble […
#>  3 acquitt…         1 <tibble [1 … <tibble [1 … <tibble [… <tibble [… <tibble […
#>  4 act              1 <tibble [1 … <tibble [1 … <tibble [… <tibble [… <tibble […
#>  5 admirat…         1 <tibble [1 … <tibble [1 … <tibble [… <tibble [… <tibble […
#>  6 affecti…         1 <tibble [1 … <tibble [1 … <tibble [… <tibble [… <tibble […
#>  7 affecti…         1 <tibble [1 … <tibble [1 … <tibble [… <tibble [… <tibble […
#>  8 affrigh…         1 <tibble [1 … <tibble [1 … <tibble [… <tibble [… <tibble […
#>  9 aha              1 <tibble [1 … <tibble [1 … <tibble [… <tibble [… <tibble […
#> 10 air              2 <tibble [1 … <tibble [1 … <tibble [… <tibble [… <tibble […
#> # … with 877 more rows
```
…
